…
```
  
  
### \% by(.$sex, function(df) {df |> dplyr::select(-sex) |> print(n=99)})  ----  
```{r, echo=TRUE, results="markup", collapse=TRUE, paged.print=FALSE, comment="#", R.options=list(width=120)}
options(width=120)

?by
survival::lung |> as_tibble() |> rownames_to_column() %>% 
    by(.$sex, function(df) {df |> dplyr::select(-sex) |> print(n=99)})
# .$sex: 1
# # A tibble: 138 × 10
#    rowname  inst  time status   age ph.ecog ph.karno pat.karno meal.cal wt.loss
#    <chr>   <dbl> <dbl>  <dbl> <dbl>   <dbl>    <dbl>     <dbl>    <dbl>   <dbl>
#  1 1           3   306      2    74       1       90       100     1175      NA
#  2 2           3   455      2    68       0       90        90     1225      15
#  3 3           3  1010      1    56       0       90        90       NA      15
#  4 4           5   210      2    57       1       90        60     1150      11
#  5 5           1   883      2    60       0      100        90       NA       0
#  6 6          12  1022      1    74       1       50        80      513       0
#  7 9           1   218      2    53       1       70        80      825      16
#  8 10          7   166      2    61       2       70        70      271      34
#  9 11          6   170      2    57       1       80        80     1025      27
# 10 14         21    71      2    60      NA       60        70     1225      32
# # ℹ 128 more rows
# # ℹ Use `print(n = ...)` to see more rows
# ------------------------------------------------------------------------------------------------------------------------------------  
# .$sex: 2
# # A tibble: 90 × 10
#    rowname  inst  time status   age ph.ecog ph.karno pat.karno meal.cal wt.loss
#    <chr>   <dbl> <dbl>  <dbl> <dbl>   <dbl>    <dbl>     <dbl>    <dbl>   <dbl>
#  1 7           7   310      2    68       2       70        60      384      10
#  2 8          11   361      2    71       2       60        80      538       1
#  3 12         16   654      2    68       2       70        70       NA      23
#  4 13         11   728      2    68       1       90        90       NA       5
#  5 19          1    61      2    56       2       60        60      238      10
#  6 22          6    81      2    49       0      100        70     1175      -8
#  7 26         12   520      2    70       1       90        80      825       6
#  8 31         12   473      2    69       1       90        90     1025      -1
#  9 34         16   107      2    60       2       50        60      925     -15
# 10 36          1   122      2    62       2       50        50     1025      NA
# # ℹ 80 more rows
# # ℹ Use `print(n = ...)` to see more rows
```
…
  
### \% by(.$sex, function(df) {df |> dplyr::select(-sex) |> print(n=99)})  ----  
```{r, echo=TRUE, results="markup", collapse=TRUE, paged.print=FALSE, comment="#", R.options=list(width=120)}
options(width=120)
data2 %>% by(.$sex, function(df) {df |> dplyr::select(-sex) |> print(n=99)})
# .$sex: 1
# # A tibble: 131 × 10
#    rowname  inst  time status   age ph.ecog ph.karno pat.karno meal.cal wt.loss
#    <chr>   <dbl> <dbl>  <dbl> <dbl>   <dbl>    <dbl>     <dbl>    <dbl>   <dbl>
#  1 10          7   166      2    61       2       70        70      271      34
#  2 11          6   170      2    57       1       80        80     1025      27
#  3 14         21    71      2    60      NA       60        70     1225      32
#  4 15         12   567      2    57       1       80        70     2600      60
#  5 16          1   144      2    67       1       80        90       NA      15
#  6 17         22   613      2    70       1       90       100     1150      -5
#  7 18         16   707      2    63       2       50        70     1025      22
#  8 20         21    88      2    57       1       90        80     1175      NA
#  9 21         11   301      2    67       1       80        80     1025      17
# 10 23         11   624      2    50       1       70        80       NA      16
# # ℹ 121 more rows
# # ℹ Use `print(n = ...)` to see more rows
# --------------------------------------------------------------------------------  
# .$sex: 2
# # A tibble: 88 × 10
#    rowname  inst  time status   age ph.ecog ph.karno pat.karno meal.cal wt.loss
#    <chr>   <dbl> <dbl>  <dbl> <dbl>   <dbl>    <dbl>     <dbl>    <dbl>   <dbl>
#  1 12         16   654      2    68       2       70        70       NA      23
#  2 13         11   728      2    68       1       90        90       NA       5
#  3 19          1    61      2    56       2       60        60      238      10
#  4 22          6    81      2    49       0      100        70     1175      -8
#  5 26         12   520      2    70       1       90        80      825       6
#  6 31         12   473      2    69       1       90        90     1025      -1
#  7 34         16   107      2    60       2       50        60      925     -15
#  8 36          1   122      2    62       2       50        50     1025      NA
#  9 38         15   965      1    66       1       70        90      875       4
# 10 40          1   731      2    64       1       80       100     1175      15
# # ℹ 78 more rows
# # ℹ Use `print(n = ...)` to see more rows
…
## \$ data3 = data2 |> mutate(sex = c("Male", "Female")[sex])  ----  
```{r, echo=TRUE, results="markup", collapse=TRUE, paged.print=FALSE, comment="#", R.options=list(width=120)}
options(width=120)
data3 = data2 |> mutate(sex = c("Male", "Female")[sex]) |> 
    mutate(sex = sex |> as.character() |> replace_na("N/A")) 
data3
```
  
  
### \% by(.$sex, function(df) {df |> dplyr::select(-sex) |> print(n=99)})  ----  
```{r, echo=TRUE, results="markup", collapse=TRUE, paged.print=FALSE, comment="#", R.options=list(width=120)}
options(width=120)
data3 %>% by(.$sex, function(df) {df |> dplyr::select(-sex) |> print(n=99)})
# .$sex: Female
# # A tibble: 88 × 10
#    rowname  inst  time status   age ph.ecog ph.karno pat.karno meal.cal wt.loss
#    <chr>   <dbl> <dbl>  <dbl> <dbl>   <dbl>    <dbl>     <dbl>    <dbl>   <dbl>
#  1 12         16   654      2    68       2       70        70       NA      23
#  2 13         11   728      2    68       1       90        90       NA       5
#  3 19          1    61      2    56       2       60        60      238      10
#  4 22          6    81      2    49       0      100        70     1175      -8
#  5 26         12   520      2    70       1       90        80      825       6
#  6 31         12   473      2    69       1       90        90     1025      -1
#  7 34         16   107      2    60       2       50        60      925     -15
#  8 36          1   122      2    62       2       50        50     1025      NA
#  9 38         15   965      1    66       1       70        90      875       4
# 10 40          1   731      2    64       1       80       100     1175      15
# # ℹ 78 more rows
# # ℹ Use `print(n = ...)` to see more rows
# --------------------------------------------------------------------------------  
# .$sex: Male
# # A tibble: 131 × 10
#    rowname  inst  time status   age ph.ecog ph.karno pat.karno meal.cal wt.loss
#    <chr>   <dbl> <dbl>  <dbl> <dbl>   <dbl>    <dbl>     <dbl>    <dbl>   <dbl>
#  1 10          7   166      2    61       2       70        70      271      34
#  2 11          6   170      2    57       1       80        80     1025      27
#  3 14         21    71      2    60      NA       60        70     1225      32
#  4 15         12   567      2    57       1       80        70     2600      60
#  5 16          1   144      2    67       1       80        90       NA      15
#  6 17         22   613      2    70       1       90       100     1150      -5
#  7 18         16   707      2    63       2       50        70     1025      22
#  8 20         21    88      2    57       1       90        80     1175      NA
#  9 21         11   301      2    67       1       80        80     1025      17
# 10 23         11   624      2    50       1       70        80       NA      16
# # ℹ 121 more rows
# # ℹ Use `print(n = ...)` to see more rows
# --------------------------------------------------------------------------------  
# .$sex: N/A
…
