…
#$ df_NewDMv3.NAtime =====
```{r, paged.print=FALSE, fig.width=8, fig.height=6}
df_NewDMv3.NAtime = as1_7.na.Date.fct.cumulative_DM.list$Time2Event_NewDMv3 %>% 
    rename(event = Event_NewDMv3, time = Time2Event_NewDMv3) %>% 
    mutate(StudyPopulation = !event | time > 1) %>% 
    mutate(Group = StudyPopulation %>% as.integer) %>% 
    as.tibble
df_NewDMv3.NAtime
df_NewDMv3.NAtime %>% select(time, event, Group, StudyPopulation) %>% by(.$StudyPopulation, summary)
# > df_NewDMv3.NAtime
# # A tibble: 10,030 × 4
#     time event StudyPopulation Group
#    <dbl> <lgl> <lgl>           <int>
#  1    NA FALSE TRUE                1
#  2    NA FALSE TRUE                1
#  3    NA FALSE TRUE                1
#  4     1 TRUE  FALSE               0
#  5    NA FALSE TRUE                1
#  6    NA FALSE TRUE                1
#  7    NA FALSE TRUE                1
#  8    NA FALSE TRUE                1
#  9     1 TRUE  FALSE               0
# 10    NA FALSE TRUE                1
# # ℹ 10,020 more rows
# # ℹ Use `print(n = ...)` to see more rows
# > df_NewDMv3.NAtime %>% select(time, event, Group, StudyPopulation) %>% by(.$StudyPopulation, summary)
# .$StudyPopulation: FALSE
#       time    event             Group   StudyPopulation
#  Min.   :1   Mode:logical   Min.   :0   Mode :logical  
#  1st Qu.:1   TRUE:1185      1st Qu.:0   FALSE:1185     
#  Median :1                  Median :0                  
#  Mean   :1                  Mean   :0                  
…
